…
boot_straps
```

    ## # A tibble: 5,000 × 3
    ##    strap_number r_squared  logb
    ##           <int>     <dbl> <dbl>
    ##  1            1     0.919  2.09
    ##  2            2     0.911  2.10
    ##  3            3     0.915  2.10
    ##  4            4     0.907  2.10
    ##  5            5     0.923  2.10
    ##  6            6     0.926  2.06
    ##  7            7     0.895  2.09
    ##  8            8     0.930  2.11
    ##  9            9     0.901  2.06
    ## 10           10     0.937  2.10
    ## # ℹ 4,990 more rows
